%YAML 1.1
%TAG !u! tag:unity3d.com,2011:
--- !u!1045 &1
EditorBuildSettings:
  m_ObjectHideFlags: 0
  serializedVersion: 2
  m_Scenes:
  - enabled: 1
    path: Assets/Scenes/Menu.unity
    guid: 2dbcdb9c621ba944b83974b9abc0cd7e
  - enabled: 1
    path: Assets/Scenes/LevelsMenu.unity
    guid: d105b92e4d8341e47be7956c860cba9d
  - enabled: 1
    path: Assets/Scenes/Level 1.unity
    guid: 9fc0d4010bbf28b4594072e72b8655ab
  - enabled: 1
    path: Assets/Scenes/Level 2.unity
    guid: d70aeda9f6069a54e8276af2a96f9b0b
  - enabled: 1
    path: Assets/Scenes/Level 3.unity
    guid: 17cd72ba285dc9649b25871b7f8dc36c
  m_configObjects: {}
